<?xml version="1.0" encoding="utf-8"?>
<!-- Generator: Adobe Illustrator 16.0.0, SVG Export Plug-In . SVG Version: 6.00 Build 0)  -->
<!DOCTYPE svg PUBLIC "-//W3C//DTD SVG 1.1//EN" "http://www.w3.org/Graphics/SVG/1.1/DTD/svg11.dtd" [
	<!ENTITY ns_flows "http://ns.adobe.com/Flows/1.0/">
	<!ENTITY ns_extend "http://ns.adobe.com/Extensibility/1.0/">
	<!ENTITY ns_ai "http://ns.adobe.com/AdobeIllustrator/10.0/">
	<!ENTITY ns_graphs "http://ns.adobe.com/Graphs/1.0/">
]>
<svg version="1.1" id="logo_design" xmlns:x="&ns_extend;" xmlns:i="&ns_ai;" xmlns:graph="&ns_graphs;"
	 xmlns="http://www.w3.org/2000/svg" xmlns:xlink="http://www.w3.org/1999/xlink" xmlns:a="http://ns.adobe.com/AdobeSVGViewerExtensions/3.0/"
	 x="0px" y="0px" width="96.152px" height="40px" viewBox="0 0 96.152 40" enable-background="new 0 0 96.152 40"
	 xml:space="preserve">
<g>
	<path fill="#3689DC" d="M11.751,39.884H6.782c-2.198-0.019-3.877-0.574-5.039-1.673C0.581,37.111,0,35.612,0,33.713V22.174h2.708
		v12.412c0,0.783,0.121,1.436,0.365,1.952c0.243,0.519,0.557,0.938,0.941,1.261c0.385,0.321,0.82,0.547,1.307,0.671
		c0.487,0.126,0.973,0.188,1.46,0.188h4.969V39.884z"/>
	<path fill="#3689DC" d="M25.479,39.836h-2.732v-0.071l0.023-2.355c-0.266,0.487-0.53,0.888-0.788,1.202
		c-0.26,0.313-0.522,0.563-0.789,0.742c-0.268,0.181-0.554,0.305-0.86,0.376c-0.305,0.069-0.633,0.106-0.977,0.106
		c-1.036,0-1.916-0.135-2.638-0.4c-0.722-0.268-1.318-0.656-1.79-1.167c-0.47-0.51-0.824-1.126-1.059-1.849
		c-0.236-0.722-0.37-1.538-0.401-2.447c0.031-0.911,0.165-1.728,0.401-2.449c0.235-0.723,0.588-1.338,1.059-1.849
		c0.472-0.51,1.068-0.903,1.79-1.178s1.602-0.412,2.638-0.412c1.083,0,2.005,0.138,2.767,0.412c0.762,0.274,1.386,0.668,1.873,1.178
		c0.486,0.511,0.847,1.126,1.083,1.849c0.235,0.722,0.368,1.538,0.4,2.449c0,0.032,0,0.093,0,0.188s0,0.33,0,0.707
		c0,0.361,0,0.926,0,1.696c0,0.751,0,1.82,0,3.201V39.836z M22.771,33.547c0-0.783-0.078-1.439-0.235-1.966
		c-0.158-0.524-0.381-0.943-0.671-1.259c-0.291-0.313-0.641-0.538-1.048-0.671c-0.408-0.134-0.855-0.192-1.343-0.177
		c-0.486-0.016-0.934,0.039-1.342,0.164s-0.758,0.346-1.048,0.659c-0.291,0.314-0.515,0.738-0.671,1.271
		c-0.157,0.535-0.236,1.194-0.236,1.978v0.825c0,0.786,0.079,1.446,0.236,1.979c0.156,0.534,0.38,0.958,0.671,1.271
		c0.29,0.314,0.64,0.533,1.048,0.661c0.408,0.124,0.856,0.181,1.342,0.164c0.99,0.031,1.787-0.378,2.391-1.225
		c0.604-0.848,0.906-2.057,0.906-3.626V33.547z"/>
	<path fill="#3689DC" d="M36.311,31.652c-0.126-0.525-0.314-0.945-0.566-1.259c-0.25-0.314-0.564-0.538-0.941-0.673
		c-0.377-0.132-0.808-0.19-1.295-0.176c-0.487-0.015-0.934,0.039-1.342,0.164c-0.409,0.126-0.758,0.347-1.049,0.66
		c-0.291,0.314-0.514,0.738-0.67,1.271c-0.158,0.533-0.235,1.194-0.235,1.979v6.193h-2.708V34.35c0-1.915,0.505-3.428,1.519-4.534
		c1.012-1.106,2.468-1.659,4.368-1.659c1.051,0,1.947,0.144,2.685,0.436c0.737,0.289,1.337,0.702,1.801,1.237
		c0.463,0.532,0.801,1.181,1.012,1.941c0.213,0.762,0.319,1.621,0.319,2.579v5.463H36.5v-6.193
		C36.5,32.835,36.437,32.179,36.311,31.652z"/>
	<path fill="#3689DC" d="M52.817,36.397c-0.235,0.722-0.596,1.339-1.083,1.849c-0.485,0.51-1.109,0.902-1.872,1.178
		c-0.762,0.274-1.684,0.412-2.768,0.412c-1.036,0-1.916-0.138-2.637-0.412c-0.722-0.275-1.318-0.668-1.789-1.178
		c-0.472-0.51-0.824-1.127-1.061-1.849c-0.235-0.723-0.369-1.539-0.4-2.449c0.031-0.909,0.165-1.734,0.4-2.472
		c0.236-0.738,0.589-1.369,1.061-1.896c0.471-0.524,1.067-0.934,1.789-1.224c0.721-0.292,1.601-0.437,2.637-0.437
		c0.708,0,1.331,0.082,1.874,0.248c0.542,0.163,1.04,0.357,1.494,0.576l0.049-6.593h2.708c0,0.895,0,1.804,0,2.729
		c0,0.928,0,1.822,0,2.686c0,0.865,0,1.682,0,2.45c0,0.753,0,1.421,0,2.001c0,0.581,0,1.044,0,1.389c0,0.346,0,0.526,0,0.542
		C53.186,34.858,53.053,35.675,52.817,36.397z M50.274,31.558c-0.157-0.54-0.38-0.98-0.671-1.317c-0.291-0.339-0.64-0.58-1.048-0.73
		c-0.408-0.149-0.855-0.216-1.343-0.201c-0.486-0.015-0.934,0.049-1.341,0.189c-0.409,0.141-0.758,0.381-1.048,0.719
		c-0.291,0.338-0.515,0.781-0.671,1.332c-0.157,0.547-0.235,1.215-0.235,1.998v0.825c0,0.786,0.078,1.446,0.235,1.979
		c0.156,0.534,0.38,0.958,0.671,1.271c0.29,0.314,0.639,0.533,1.048,0.661c0.407,0.124,0.855,0.181,1.341,0.164
		c0.487,0.017,0.935-0.043,1.343-0.178c0.408-0.132,0.758-0.356,1.048-0.67c0.291-0.313,0.514-0.733,0.671-1.261
		c0.156-0.525,0.236-1.18,0.236-1.966v-0.825C50.511,32.764,50.431,32.1,50.274,31.558z"/>
	<path fill="#FF5722" d="M59.611,38.67c0.322-0.086,0.608-0.212,0.86-0.376c0.25-0.166,0.446-0.366,0.587-0.601
		c0.144-0.236,0.213-0.511,0.213-0.825c0-0.284-0.075-0.53-0.224-0.742c-0.149-0.21-0.347-0.399-0.588-0.565
		c-0.245-0.164-0.523-0.309-0.837-0.436c-0.314-0.126-0.644-0.25-0.99-0.376c-0.453-0.157-0.902-0.329-1.34-0.518
		c-0.441-0.189-0.838-0.421-1.189-0.694c-0.354-0.274-0.641-0.613-0.859-1.014c-0.222-0.399-0.33-0.891-0.33-1.471
		c0-0.487,0.116-0.926,0.352-1.32c0.237-0.391,0.555-0.726,0.956-1c0.399-0.273,0.859-0.484,1.376-0.623
		c0.519-0.143,1.06-0.212,1.625-0.212c0.438,0,0.831,0.015,1.178,0.046c0.345,0.032,0.667,0.087,0.966,0.166
		c0.298,0.078,0.581,0.185,0.848,0.316c0.267,0.135,0.556,0.295,0.871,0.482c0.046,0.314,0.066,0.586,0.058,0.813
		c-0.006,0.229-0.012,0.459-0.012,0.696c-0.188-0.142-0.389-0.283-0.601-0.424c-0.21-0.143-0.459-0.275-0.741-0.401
		c-0.282-0.125-0.612-0.231-0.988-0.317c-0.378-0.086-0.824-0.152-1.344-0.201c-0.297,0-0.593,0.035-0.883,0.106
		c-0.289,0.071-0.544,0.174-0.765,0.307c-0.219,0.134-0.4,0.298-0.541,0.495c-0.142,0.195-0.213,0.427-0.213,0.693
		c0,0.284,0.075,0.525,0.224,0.73c0.149,0.204,0.35,0.394,0.602,0.565c0.25,0.172,0.537,0.326,0.859,0.458
		c0.322,0.135,0.654,0.272,1.001,0.413c0.438,0.174,0.88,0.357,1.317,0.553c0.439,0.197,0.837,0.433,1.19,0.708
		c0.353,0.274,0.639,0.604,0.859,0.988c0.22,0.384,0.329,0.852,0.329,1.401c0,0.612-0.137,1.143-0.412,1.59
		s-0.631,0.812-1.072,1.093c-0.438,0.283-0.932,0.492-1.481,0.624C59.92,39.934,59.38,40,58.847,40
		c-0.597-0.015-1.206-0.063-1.825-0.141c-0.619-0.078-1.252-0.213-1.896-0.401l-0.211-1.602c0.58,0.409,1.148,0.676,1.707,0.802
		c0.558,0.126,1.212,0.172,1.965,0.141C58.947,38.799,59.289,38.756,59.611,38.67z"/>
	<path fill="#FF5722" d="M73.94,28.578c0.722,0.33,1.317,0.768,1.79,1.309c0.471,0.541,0.824,1.166,1.061,1.872
		c0.235,0.707,0.367,1.444,0.398,2.214c-0.031,0.8-0.16,1.557-0.388,2.272c-0.228,0.714-0.575,1.333-1.048,1.858
		c-0.471,0.526-1.071,0.947-1.802,1.261c-0.729,0.313-1.613,0.472-2.648,0.472c-1.084,0-2.007-0.158-2.769-0.472
		c-0.76-0.313-1.386-0.741-1.871-1.282c-0.487-0.544-0.848-1.168-1.083-1.873c-0.235-0.706-0.37-1.451-0.399-2.236
		c0.015-0.77,0.141-1.507,0.376-2.214c0.235-0.706,0.597-1.331,1.083-1.872c0.487-0.541,1.115-0.979,1.883-1.309
		c0.771-0.33,1.696-0.493,2.78-0.493C72.339,28.085,73.219,28.248,73.94,28.578z M68.123,36.338
		c0.158,0.527,0.381,0.947,0.673,1.261c0.29,0.313,0.639,0.538,1.047,0.67c0.409,0.135,0.856,0.194,1.343,0.178
		c0.487,0.017,0.933-0.04,1.342-0.164c0.409-0.128,0.759-0.347,1.049-0.661c0.29-0.313,0.514-0.736,0.67-1.271
		c0.158-0.532,0.235-1.192,0.235-1.979v-0.825c0-0.783-0.077-1.442-0.235-1.978c-0.156-0.533-0.38-0.957-0.67-1.271
		c-0.29-0.313-0.64-0.534-1.049-0.659s-0.854-0.18-1.342-0.164c-0.486-0.016-0.934,0.043-1.343,0.177
		c-0.408,0.133-0.757,0.358-1.047,0.671c-0.292,0.315-0.515,0.734-0.673,1.259c-0.155,0.526-0.233,1.183-0.233,1.966v0.825
		C67.89,35.158,67.968,35.813,68.123,36.338z"/>
	<path fill="#FF5722" d="M85.973,23.563c-0.486,0-0.974,0.063-1.459,0.189c-0.488,0.124-0.923,0.348-1.309,0.669
		c-0.384,0.321-0.698,0.744-0.94,1.267c-0.243,0.525-0.366,1.17-0.366,1.937v1.183h3.526v1.358h-3.526v9.647H79.19V28.345
		c0-1.899,0.582-3.4,1.744-4.499c1.159-1.098,2.839-1.656,5.038-1.672h2.214v1.389H85.973z"/>
	<path fill="#FF5722" d="M96.152,30.108h-2.73v9.751h-2.613v-9.751h-2.757V28.72h2.757v-6.546h2.613v6.546h2.73V30.108z"/>
	<path fill="#3689DC" d="M22.425,3.89c0,0,4.037,2.586,7.716,4.855c3.678,2.27,3.191-2.267,3.191-2.267
		C33.333,2.901,30.432,0,26.854,0H16.299c-3.579,0-6.48,2.901-6.48,6.479v3.646c0,0-0.719,5.684,3.078,2.288
		C16.693,9.016,22.425,3.89,22.425,3.89z"/>
	<path fill="#FF5722" d="M31.032,12.366c-2.86-1.798-8.333-5.243-8.333-5.243s-6.473,5.762-9.744,8.714
		c-3.271,2.953-3.135,5.748-3.135,5.748v6.765c0,0,3.186-4.834,8.45-4.834c3.347,0,5.265,0,5.265,0h3.32
		c3.579,0,6.479-2.902,6.479-6.48C33.333,17.035,33.891,14.165,31.032,12.366z M29.752,19.046c0,0.796-0.646,1.441-1.442,1.441
		h-0.739h-1.609H24.52v-1.441v-1.539v-0.805h-0.734h-1.609h-1.442V15.26v-1.537v-0.811c0-0.796,0.646-1.441,1.442-1.441h2.348
		c0.797,0,1.442,0.645,1.442,1.441v2.344h2.343c0.796,0,1.442,0.646,1.442,1.441V19.046z"/>
</g>
</svg>
